{
	"info": {
		"_postman_id": "f7a3e036-f2b2-49f2-bb20-57f6d6a7a8d5",
		"name": "s33",
		"schema": "https://schema.getpostman.com/json/collection/v2.1.0/collection.json",
		"_exporter_id": "27193800"
	},
	"item": [
		{
			"name": "discussion",
			"item": [
				{
					"name": "GET example",
					"request": {
						"method": "GET",
						"header": [],
						"url": {
							"raw": "https://official-joke-api.appspot.com/jokes/programming/random",
							"protocol": "https",
							"host": [
								"official-joke-api",
								"appspot",
								"com"
							],
							"path": [
								"jokes",
								"programming",
								"random"
							]
						}
					},
					"response": []
				},
				{
					"name": "GET Posts",
					"request": {
						"method": "GET",
						"header": [],
						"url": {
							"raw": "https://jsonplaceholder.typicode.com/posts",
							"protocol": "https",
							"host": [
								"jsonplaceholder",
								"typicode",
								"com"
							],
							"path": [
								"posts"
							]
						}
					},
					"response": []
				},
				{
					"name": "GET Specific Post",
					"request": {
						"method": "GET",
						"header": [],
						"url": {
							"raw": "https://jsonplaceholder.typicode.com/posts/2",
							"protocol": "https",
							"host": [
								"jsonplaceholder",
								"typicode",
								"com"
							],
							"path": [
								"posts",
								"2"
							]
						}
					},
					"response": []
				},
				{
					"name": "POST create a task",
					"request": {
						"method": "POST",
						"header": [
							{
								"key": "Content-Type",
								"value": "application/json",
								"type": "text"
							}
						],
						"body": {
							"mode": "raw",
							"raw": "{\r\n    \"title\" : \"My First Blog Post\",\r\n    \"body\" : \"Hello World!\",\r\n    \"userId\" : 1\r\n}",
							"options": {
								"raw": {
									"language": "json"
								}
							}
						},
						"url": {
							"raw": "https://jsonplaceholder.typicode.com/posts/",
							"protocol": "https",
							"host": [
								"jsonplaceholder",
								"typicode",
								"com"
							],
							"path": [
								"posts",
								""
							]
						}
					},
					"response": []
				},
				{
					"name": "PUT update whole object",
					"request": {
						"method": "PUT",
						"header": [],
						"body": {
							"mode": "raw",
							"raw": "{\r\n    \"title\" : \"Hello\"\r\n}",
							"options": {
								"raw": {
									"language": "json"
								}
							}
						},
						"url": {
							"raw": "https://jsonplaceholder.typicode.com/posts/1",
							"protocol": "https",
							"host": [
								"jsonplaceholder",
								"typicode",
								"com"
							],
							"path": [
								"posts",
								"1"
							]
						}
					},
					"response": []
				},
				{
					"name": "PATCH update specific property in object",
					"request": {
						"method": "PATCH",
						"header": [],
						"body": {
							"mode": "raw",
							"raw": "{\r\n    \"title\" : \"Hello\"\r\n}",
							"options": {
								"raw": {
									"language": "json"
								}
							}
						},
						"url": {
							"raw": "https://jsonplaceholder.typicode.com/posts/1",
							"protocol": "https",
							"host": [
								"jsonplaceholder",
								"typicode",
								"com"
							],
							"path": [
								"posts",
								"1"
							]
						}
					},
					"response": []
				},
				{
					"name": "DELETE specific task",
					"request": {
						"method": "DELETE",
						"header": [],
						"url": {
							"raw": "https://jsonplaceholder.typicode.com/posts/1",
							"protocol": "https",
							"host": [
								"jsonplaceholder",
								"typicode",
								"com"
							],
							"path": [
								"posts",
								"1"
							]
						}
					},
					"response": []
				}
			]
		},
		{
			"name": "activity",
			"item": [
				{
					"name": "getAllToDo",
					"request": {
						"method": "GET",
						"header": [],
						"url": {
							"raw": "https://jsonplaceholder.typicode.com/todos",
							"protocol": "https",
							"host": [
								"jsonplaceholder",
								"typicode",
								"com"
							],
							"path": [
								"todos"
							]
						}
					},
					"response": []
				},
				{
					"name": "getSpecificToDo",
					"request": {
						"method": "GET",
						"header": [],
						"url": {
							"raw": "https://jsonplaceholder.typicode.com/todos/1",
							"protocol": "https",
							"host": [
								"jsonplaceholder",
								"typicode",
								"com"
							],
							"path": [
								"todos",
								"1"
							]
						}
					},
					"response": []
				},
				{
					"name": "createToDo",
					"request": {
						"method": "POST",
						"header": [],
						"body": {
							"mode": "raw",
							"raw": "{\r\n    \"completed\": \"false\",\r\n    \"title\" : \"Created To Do List Item\",\r\n    \"userId\": 1\r\n}",
							"options": {
								"raw": {
									"language": "json"
								}
							}
						},
						"url": {
							"raw": "https://jsonplaceholder.typicode.com/todos",
							"protocol": "https",
							"host": [
								"jsonplaceholder",
								"typicode",
								"com"
							],
							"path": [
								"todos"
							]
						}
					},
					"response": []
				},
				{
					"name": "updateToDo",
					"request": {
						"method": "PUT",
						"header": [],
						"body": {
							"mode": "raw",
							"raw": "{\r\n    \"dateCompleted\" : \"Pending\",\r\n    \"description\" : \"To update the my to do list with a different data structure\",\r\n    \"status\": \"Pending\",\r\n    \"title\": \"Updated To Do List Item\",\r\n    \"userId\": 1\r\n}",
							"options": {
								"raw": {
									"language": "json"
								}
							}
						},
						"url": {
							"raw": "https://jsonplaceholder.typicode.com/todos/1",
							"protocol": "https",
							"host": [
								"jsonplaceholder",
								"typicode",
								"com"
							],
							"path": [
								"todos",
								"1"
							]
						}
					},
					"response": []
				},
				{
					"name": "deleteToDo",
					"request": {
						"method": "DELETE",
						"header": [],
						"url": {
							"raw": "https://jsonplaceholder.typicode.com/todos/1",
							"protocol": "https",
							"host": [
								"jsonplaceholder",
								"typicode",
								"com"
							],
							"path": [
								"todos",
								"1"
							]
						}
					},
					"response": []
				}
			]
		}
	]
}